Division,WeightClassKg,Place,Name,Team,BodyweightKg,Best3SquatKg,Best3BenchKg,Best3DeadliftKg,TotalKg,Equipment,Event,Sex,BirthDate
Boys,51.71,1,Hisaac Guerrero,Rio Hondo,50.17,147.42,113.4,163.29,424.11,Single-ply,SBD,M,
Boys,51.71,2,Christian Galvan,Rio Hondo,51.44,127.01,68.04,131.54,326.59,Single-ply,SBD,M,
Boys,51.71,3,Gustavo Guerrero,Port Isabel,50.8,131.54,63.5,124.74,319.78,Single-ply,SBD,M,
Boys,55.79,1,Jaden Lopez,Port Isabel,55.11,206.38,102.06,197.31,505.76,Single-ply,SBD,M,
Boys,59.87,1,David Hernandez,Port Isabel,59.51,197.31,115.67,208.65,521.63,Single-ply,SBD,M,
Boys,59.87,2,Elek Hernandez,Rio Hondo,59.87,142.88,86.18,154.22,383.29,Single-ply,SBD,M,
Boys,59.87,DQ,Joel Tagle,Rio Hondo,57.33,,,,,Single-ply,SBD,M,
Boys,67.13,1,Giovanni Salazar,La Joya,66.22,251.74,115.67,226.8,594.21,Single-ply,SBD,M,
Boys,67.13,2,Marco Esparz,Hidalgo Early College,67.13,208.65,106.59,165.56,480.81,Single-ply,SBD,M,
Boys,67.13,3,Derrin Valdez,Port Isabel,67.13,181.44,111.13,188.24,480.81,Single-ply,SBD,M,
Boys,67.13,4,Efrain Lopez,Rio Hondo,64.5,170.1,120.2,185.97,476.27,Single-ply,SBD,M,
Boys,67.13,5,Nicholas Morales,La Feria,63.96,111.13,97.52,147.42,356.07,Single-ply,SBD,M,
Boys,67.13,6,Pedro Infante,Port Isabel,64.73,124.74,83.91,142.88,351.53,Single-ply,SBD,M,
Boys,74.84,1,Jacob Martinez,Hidalgo Early College,74.84,217.72,127.01,197.31,542.04,Single-ply,SBD,M,
Boys,74.84,2,Miguel Guerrero,Hidalgo Early College,74.84,226.8,124.74,183.7,535.24,Single-ply,SBD,M,
Boys,74.84,3,Miguel Martinez,Port Isabel,74.39,215.46,104.33,213.19,532.97,Single-ply,SBD,M,
Boys,74.84,4,Devon Ortiz,Port Isabel,73.66,201.85,99.79,197.31,498.95,Single-ply,SBD,M,
Boys,74.84,5,John Gurrola,La Feria,68.04,117.93,92.99,115.67,326.59,Single-ply,SBD,M,
Boys,74.84,DQ,Danial Villarreal,Port Isabel,72.03,136.08,92.99,,,Single-ply,SBD,M,
Boys,82.1,1,Travis Menchaca,La Feria,79.65,210.92,117.93,226.8,555.65,Single-ply,SBD,M,
Boys,82.1,2,Evan Sanchez,La Feria,79.11,206.38,120.2,192.78,519.36,Single-ply,SBD,M,
Boys,82.1,3,Kaleb Clinton,Port Isabel,81.83,206.38,104.33,204.12,514.83,Single-ply,SBD,M,
Boys,82.1,4,Christian Ferrone,Port Isabel,81.33,174.63,102.06,188.24,464.93,Single-ply,SBD,M,
Boys,82.1,5,Cross Martinez,Port Isabel,81.74,149.69,90.72,174.63,415.04,Single-ply,SBD,M,
Boys,82.1,DQ,Juan Torres #2,Raymondville,81.83,,,,,Single-ply,SBD,M,
Boys,89.81,1,Adrian Cantu,Raymondville,85.28,274.42,142.88,224.53,641.83,Single-ply,SBD,M,
Boys,89.81,2,Pablo Jimenez,La Joya,89.81,219.99,142.88,190.51,553.38,Single-ply,SBD,M,
Boys,89.81,3,Caleb Martinez,La Feria,85.28,201.85,124.74,174.63,501.22,Single-ply,SBD,M,
Boys,99.79,1,Orlando Morales,La Feria,97.16,276.69,149.69,244.94,671.32,Single-ply,SBD,M,
Boys,99.79,2,Jonah Hernandez,Port Isabel,98.79,278.96,151.95,226.8,657.71,Single-ply,SBD,M,
Boys,99.79,3,Ezequiel Palestina,Port Isabel,95.89,183.7,88.45,158.76,430.91,Single-ply,SBD,M,
Boys,109.77,1,Jacob Reyes,La Joya,102.15,204.12,120.2,188.24,512.56,Single-ply,SBD,M,
Boys,109.77,2,Christopher Finona,Port Isabel,109.45,201.85,106.59,170.1,478.54,Single-ply,SBD,M,
Boys,124.74,1,Matthew Lopez #1,Rio Hondo,124.38,317.51,190.51,263.08,771.11,Single-ply,SBD,M,
Boys,124.74,2,Saul Hernandez,Hidalgo Early College,121.38,294.84,185.97,244.94,725.75,Single-ply,SBD,M,
Boys,124.74,3,Antonio Marroquin,La Feria,110.77,285.76,167.83,242.67,696.26,Single-ply,SBD,M,
Boys,124.74,4,Isaac Longoria,Hidalgo Early College,120.2,281.23,170.1,235.87,687.19,Single-ply,SBD,M,
Boys,124.74,5,Adrian Gonzalez,Rio Hondo,118.84,267.62,165.56,222.26,655.44,Single-ply,SBD,M,
Boys,124.74,6,Michael Garza #6,Rio Hondo,120.2,272.16,172.37,208.65,653.17,Single-ply,SBD,M,
Boys,124.74,DQ,Ruben Guerra,Hidalgo Early College,120.47,,,,,Single-ply,SBD,M,
Boys,139.71,1,David Garza,Hidalgo Early College,132.54,272.16,170.1,226.8,669.05,Single-ply,SBD,M,
Boys,139.71,2,Seth Morales,La Feria,126.28,183.7,108.86,158.76,451.32,Single-ply,SBD,M,
Boys,139.71,DQ,David Gomez,Rio Hondo,130.82,217.72,167.83,,,Single-ply,SBD,M,
Boys,139.71+,1,Jaden Brooks,Raymondville,184.07,306.17,142.88,247.21,696.26,Single-ply,SBD,M,
Boys,139.71+,2,Triston Garza,La Feria,150.5,306.17,170.1,204.12,680.39,Single-ply,SBD,M,
Boys,139.71+,3,Miguel Chavarria,Rio Hondo,144.15,222.26,127.01,208.65,557.92,Single-ply,SBD,M,
Boys,139.71+,4,Lando Cantu,Raymondville,145.51,210.92,111.13,195.04,517.1,Single-ply,SBD,M,
Boys,139.71+,5,Eduardo Rosales,La Feria,149.05,165.56,136.08,183.7,485.34,Single-ply,SBD,M,
Boys,,NS,Bryan Martinez,La Joya,,,,,,Single-ply,SBD,M,
Boys,,NS,Adan Elizondo,La Joya,,,,,,Single-ply,SBD,M,
Boys,,NS,Angel Olvera,La Joya,,,,,,Single-ply,SBD,M,
Boys,,NS,Tristen Garcia,Port Isabel,,,,,,Single-ply,SBD,M,
Boys,,NS,Tomas Arredondo,Rio Hondo,,,,,,Single-ply,SBD,M,
