Division,WeightClassKg,Place,Name,Team,BodyweightKg,Best3SquatKg,Best3BenchKg,Best3DeadliftKg,TotalKg,Equipment,Event,Sex,BirthDate
Boys,51.71,1,John Wyatt,Fort Worth Chisholm Trail,50.89,111.13,65.77,122.47,299.37,Single-ply,SBD,M,
Boys,51.71,2,Antonio Aldaco,Fort Worth Boswell,50.26,74.84,56.7,102.06,233.6,Single-ply,SBD,M,
Boys,59.87,1,Jesus Calderon,Saginaw,58.15,124.74,88.45,167.83,381.02,Single-ply,SBD,M,
Boys,67.13,1,Colten Wilson,Fort Worth Boswell,65.86,151.95,77.11,174.63,403.7,Single-ply,SBD,M,
Boys,67.13,2,Shane Panzarella,Fort Worth Boswell,60.6,117.93,72.57,124.74,315.25,Single-ply,SBD,M,
Boys,67.13,DQ,Connor Neuse,Fort Worth Chisholm Trail,61.23,115.67,,136.08,,Single-ply,SBD,M,
Boys,74.84,1,Jaden Fisher,Fort Worth Chisholm Trail,71.85,151.95,88.45,181.44,421.84,Single-ply,SBD,M,
Boys,74.84,2,Caleb Phillips,Fort Worth Boswell,72.3,140.61,92.99,151.95,385.55,Single-ply,SBD,M,
Boys,74.84,3,Samuel Labruyere,Fort Worth Chisholm Trail,67.59,138.35,83.91,140.61,362.87,Single-ply,SBD,M,
Boys,74.84,4,Joel Kaira,Fort Worth Chisholm Trail,74.39,133.81,83.91,142.88,360.61,Single-ply,SBD,M,
Boys,74.84,5,Alex Rosales,Fort Worth Boswell,72.12,120.2,81.65,147.42,349.27,Single-ply,SBD,M,
Boys,82.1,1,Jorge Alvarez,Fort Worth Boswell,80.65,174.63,111.13,176.9,462.66,Single-ply,SBD,M,
Boys,82.1,2,Gio Porras,Saginaw,81.1,127.01,86.18,163.29,376.48,Single-ply,SBD,M,
Boys,89.81,1,Shone Mombo,Fort Worth Chisholm Trail,86.64,197.31,129.27,201.85,528.44,Single-ply,SBD,M,
Boys,89.81,2,Parker Anderson,Fort Worth Boswell,84.19,161.03,99.79,183.7,444.52,Single-ply,SBD,M,
Boys,89.81,3,Israel Kaloso,Fort Worth Chisholm Trail,87.09,142.88,88.45,151.95,383.29,Single-ply,SBD,M,
Boys,99.79,1,Garrett Palmer,Fort Worth Boswell,98.79,197.31,133.81,199.58,530.7,Single-ply,SBD,M,
Boys,99.79,2,Jeremiah Dowell,Fort Worth Chisholm Trail,96.34,161.03,102.06,181.44,444.52,Single-ply,SBD,M,
Boys,99.79,3,Nick Marquez,Fort Worth Chisholm Trail,90.45,149.69,108.86,179.17,437.72,Single-ply,SBD,M,
Boys,99.79,4,Julian Abraham,Fort Worth Boswell,98.61,163.29,120.2,151.95,435.45,Single-ply,SBD,M,
Boys,99.79,5,Cody Carrillo-Miranda,Saginaw,97.98,172.37,72.57,176.9,421.84,Single-ply,SBD,M,
Boys,99.79,6,Mason Munk,Fort Worth Boswell,99.7,145.15,99.79,167.83,412.77,Single-ply,SBD,M,
Boys,99.79,7,Joe Molina,Fort Worth Boswell,97.07,147.42,95.25,165.56,408.23,Single-ply,SBD,M,
Boys,99.79,8,Cooper Vaden,Fort Worth Boswell,96.25,140.61,99.79,165.56,405.97,Single-ply,SBD,M,
Boys,99.79,9,Tj Richardson,Fort Worth Boswell,94.98,154.22,104.33,142.88,401.43,Single-ply,SBD,M,
Boys,99.79,10,Eli Raya,Fort Worth Chisholm Trail,96.25,129.27,106.59,161.03,396.89,Single-ply,SBD,M,
Boys,99.79,11,Ayden Benintendi,Fort Worth Boswell,99.25,142.88,97.52,154.22,394.63,Single-ply,SBD,M,
Boys,99.79,12,Clayken Obispo,Fort Worth Boswell,98.34,158.76,92.99,136.08,387.82,Single-ply,SBD,M,
Boys,99.79,13,Nick Gillihan,Fort Worth Boswell,97.61,149.69,90.72,142.88,383.29,Single-ply,SBD,M,
Boys,109.77,1,Breydon Blackwell,Fort Worth Boswell,103.78,210.92,136.08,210.92,557.92,Single-ply,SBD,M,
Boys,109.77,2,David Alvarez,Fort Worth Boswell,109.13,199.58,136.08,215.46,551.11,Single-ply,SBD,M,
Boys,109.77,3,Danny Simmons,Fort Worth Chisholm Trail,109.13,206.38,129.27,206.38,542.04,Single-ply,SBD,M,
Boys,109.77,4,Gerardo De La O,Saginaw,105.69,181.44,111.13,188.24,480.81,Single-ply,SBD,M,
Boys,109.77,5,Alijah Brand,Fort Worth Boswell,101.88,154.22,99.79,151.95,405.97,Single-ply,SBD,M,
Boys,124.74,1,Austin Lyon,Fort Worth Boswell,120.47,201.85,115.67,217.72,535.24,Single-ply,SBD,M,
Boys,124.74,2,Steve Campbell,Fort Worth Boswell,111.13,181.44,120.2,172.37,474,Single-ply,SBD,M,
Boys,124.74,3,Chris Lister,Fort Worth Boswell,116.75,156.49,99.79,170.1,426.38,Single-ply,SBD,M,
Boys,139.71,1,Drew Garcia,Saginaw,135.44,138.35,90.72,167.83,396.89,Single-ply,SBD,M,
Boys,139.71,2,Ricardo Retana,Saginaw,128.09,120.2,92.99,172.37,385.55,Single-ply,SBD,M,
Boys,139.71+,1,Juan Garcia,Fort Worth Chisholm Trail,141.7,208.65,127.01,208.65,544.31,Single-ply,SBD,M,
Boys,139.71+,2,Colton Barber,Saginaw,145.24,190.51,104.33,185.97,480.81,Single-ply,SBD,M,
Boys,139.71+,3,Hayden Norwich,Fort Worth Chisholm Trail,140.07,154.22,120.2,172.37,446.79,Single-ply,SBD,M,
