Place,Name,Sex,Country,State,Equipment,Division,BodyweightKg,WeightClassKg,Best3SquatKg,Best3BenchKg,Best3DeadliftKg,TotalKg,Event
DQ,P. Beckwith,M,USA,VT,Single-ply,Open VT,,60,113.4,,,,SBD
DQ,B. Brown,M,USA,VT,Single-ply,Open VT,,60,,,,,SBD
1,G. Carter,M,USA,NH,Single-ply,Novice NH,,67.5,199.58,140.61,204.12,544.31,SBD
1,G. Carter,M,USA,NH,Single-ply,Open NH,,67.5,199.58,140.61,204.12,544.31,SBD
2,J. Scarlotto,M,USA,NH,Single-ply,Open NH,,67.5,124.74,102.06,151.95,378.75,SBD
1,Horace Guidry,M,USA,NH,Single-ply,Class I Open,,67.5,206.38,131.54,233.6,571.53,SBD
2,G. Carter,M,USA,NH,Single-ply,Class I Open,,67.5,199.58,140.61,204.12,544.31,SBD
3,Larry Magnusson,M,USA,NH,Single-ply,Class I Open,,67.5,163.29,108.86,204.12,476.27,SBD
4,K. Feier,M,USA,NH,Single-ply,Class I Open,,67.5,145.15,102.06,190.51,437.72,SBD
5,K. Brunetto,M,USA,NH,Single-ply,Class I Open,,67.5,149.69,95.25,181.44,426.38,SBD
1,Tom Donahue,M,USA,VT,Single-ply,Open VT,,75,131.54,120.2,183.7,435.45,SBD
1,Mark Himmelberger,M,USA,NH,Single-ply,Open NH,,75,254.01,140.61,254.01,648.64,SBD
1,Mark Himmelberger,M,USA,NH,Single-ply,Class I Open,,75,254.01,140.61,254.01,648.64,SBD
2,Scott LaBonte,M,USA,NH,Single-ply,Class I Open,,75,208.65,124.74,206.38,539.77,SBD
3,Paul Seyffert,M,USA,NH,Single-ply,Class I Open,,75,192.78,115.67,226.8,535.24,SBD
4,J. Bach,M,USA,VT,Single-ply,Class I Open,,75,199.58,122.47,199.58,521.63,SBD
5,S. Hamlen,M,USA,NH,Single-ply,Class I Open,,75,192.78,115.67,199.58,508.02,SBD
6,Tom Donahue,M,USA,VT,Single-ply,Class I Open,,75,131.54,120.2,183.7,435.45,SBD
1,Tom Donahue,M,USA,VT,Single-ply,Novice,,75,131.54,120.2,183.7,435.45,SBD
1,John Quinn,M,USA,VT,Single-ply,Open VT,,82.5,199.58,111.13,240.4,551.11,SBD
2,Orlando Cross,M,USA,VT,Single-ply,Open VT,,82.5,154.22,102.06,174.63,430.91,SBD
1,R. Samson,M,USA,NH,Single-ply,Novice VT,,82.5,238.14,149.69,263.08,650.91,SBD
2,James Kathios,M,USA,NH,Single-ply,Class I Open,,82.5,199.58,165.56,235.87,601.01,SBD
3,M. Bergeron,M,USA,NH,Single-ply,Class I Open,,82.5,240.4,127.01,231.33,598.74,SBD
4,Ken Jackson,M,USA,NH,Single-ply,Class I Open,,82.5,188.24,127.01,213.19,528.44,SBD
5,G. Fink,M,USA,,Single-ply,Class I Open,,82.5,215.46,117.93,185.97,519.36,SBD
6,J. Hamel,M,USA,,Single-ply,Class I Open,,82.5,188.24,108.86,204.12,501.22,SBD
7,B. Lawrence,M,USA,NH,Single-ply,Class I Open,,82.5,142.88,104.33,215.46,462.66,SBD
1,R. Samson,M,USA,NH,Single-ply,Open NH,,82.5,238.14,149.69,263.08,650.91,SBD
2,James Kathios,M,USA,NH,Single-ply,Open NH,,82.5,199.58,165.56,235.87,601.01,SBD
3,Wayne Colby,M,USA,NH,Single-ply,Open NH,,82.5,219.99,127.01,210.92,557.92,SBD
4,B. Lawrence,M,USA,NH,Single-ply,Open NH,,82.5,142.88,104.33,215.46,462.66,SBD
1,Wayne Colby,M,USA,NH,Single-ply,Novice NH,,82.5,219.99,127.01,210.92,557.92,SBD
2,Ken Jackson,M,USA,NH,Single-ply,Novice NH,,82.5,188.24,127.01,213.19,528.44,SBD
3,B. Lawrence,M,USA,NH,Single-ply,Novice NH,,82.5,142.88,104.33,215.46,462.66,SBD
1,Peter McDougall,M,USA,VT,Single-ply,Open VT,,90,235.87,133.81,226.8,596.47,SBD
DQ,Todd Genovese,M,USA,VT,Single-ply,Open VT,,90,,,,,SBD
1,Michael Piper,M,USA,NH,Single-ply,Open NH,88.11,90,254.01,163.29,217.72,635.03,SBD
2,Bill Dupont,M,USA,NH,Single-ply,Open NH,,90,215.46,138.35,204.12,557.92,SBD
1,S. Smith,M,USA,,Single-ply,Class I Open,,90,240.4,163.29,256.28,659.98,SBD
2,Herbert Nunes,M,USA,,Single-ply,Class I Open,,90,256.28,161.03,226.8,644.1,SBD
3,R. Bova,M,USA,,Single-ply,Class I Open,,90,251.74,147.42,231.33,630.49,SBD
4,Peter McDougall,M,USA,VT,Single-ply,Class I Open,,90,235.87,133.81,226.8,596.47,SBD
5,Bill Dupont,M,USA,NH,Single-ply,Class I Open,,90,215.46,138.35,204.12,557.92,SBD
6,J. Boggi,M,USA,,Single-ply,Class I Open,,90,179.17,129.27,197.31,505.75,SBD
1,Matt Pecor,M,USA,VT,Single-ply,Open VT,,100,244.94,136.08,235.87,616.89,SBD
2,Rodney Inman,M,USA,VT,Single-ply,Open VT,,100,181.44,120.2,242.67,544.31,SBD
DQ,B. Fredette,M,USA,VT,Single-ply,Open VT,,100,,,,,SBD
1,Matt Pecor,M,USA,VT,Single-ply,Novice VT,,100,244.94,136.08,235.87,616.89,SBD
DQ,B. Fredette,M,USA,VT,Single-ply,Novice VT,,100,,,,,SBD
1,C. Lennick,M,USA,,Single-ply,Class I Open,,100,288.03,174.63,260.82,723.48,SBD
2,W. Hensel,M,USA,,Single-ply,Class I Open,,100,249.48,154.22,217.72,621.42,SBD
3,M. Brockett,M,USA,,Single-ply,Class I Open,,100,199.58,147.42,204.12,551.11,SBD
4,D. Trainor,M,USA,,Single-ply,Class I Open,,100,197.31,120.2,215.46,532.97,SBD
1,E. Parker,M,USA,NH,Single-ply,Open NH,,110,181.44,131.54,190.51,503.49,SBD
1,E. Parker,M,USA,NH,Single-ply,Novice NH,,110,181.44,131.54,190.51,503.49,SBD
1,Ken Schuhler,M,USA,,Single-ply,Class I Open,,110,254.01,170.1,249.48,673.58,SBD
2,A. Vale,M,USA,,Single-ply,Class I Open,,110,249.48,165.56,249.48,664.51,SBD
3,T. Crawford,M,USA,,Single-ply,Class I Open,,110,222.26,136.08,231.33,589.67,SBD
1,Paul Garrow,M,USA,VT,Single-ply,Open VT,,125,285.76,158.76,260.82,705.34,SBD
DQ,John Wnek,M,USA,VT,Single-ply,Open VT,,125,254.01,,,,SBD
1,C. Summerville,M,USA,,Single-ply,Class I Open,,125,244.94,170.1,265.35,680.39,SBD
1,Wayne Andrews,M,USA,NH,Single-ply,Open NH,,140+,272.16,156.49,308.44,737.09,SBD
2,D. Michalewicz,M,USA,NH,Single-ply,Open NH,,140+,158.76,117.93,195.04,471.74,SBD
1,D. Michalewicz,M,USA,NH,Single-ply,Novice NH,,140+,158.76,117.93,195.04,471.74,SBD
1,Wayne Andrews,M,USA,NH,Single-ply,Class I Open,,140+,272.16,156.49,308.44,737.09,SBD
1,Wayne Andrews,M,USA,NH,Single-ply,Police-Fire Open,,140+,272.16,156.49,308.44,737.09,SBD
1,M. Sisino,M,USA,,Single-ply,Police-Fire Open,,110,172.37,92.99,206.38,471.74,SBD
DQ,John Wnek,M,USA,VT,Single-ply,Police-Fire Open,,125,254.01,,,,SBD
1,Wayne Andrews,M,USA,NH,Single-ply,Police-Fire Master,,140+,272.16,156.49,308.44,737.09,SBD
1,Orlando Cross,M,USA,VT,Single-ply,T13-15 VT,79.83,,154.22,102.06,174.63,430.91,SBD
2,J. Dunham,M,USA,VT,Single-ply,T13-15 VT,82.1,,65.77,61.23,136.08,263.08,SBD
1,Drew Markey,M,USA,VT,Single-ply,T18-19 VT,66.68,,165.56,129.27,204.12,498.95,SBD
2,Ed Cassella,M,USA,VT,Single-ply,T18-19 VT,64.86,,124.74,131.54,181.44,437.72,SBD
3,R. Sweeney,M,USA,VT,Single-ply,T18-19 VT,63.05,,102.06,83.91,158.76,344.73,SBD
1,Michael Piper,M,USA,NH,Single-ply,T18-19 NH,88.11,,254.01,163.29,217.72,635.03,SBD
2,D. Pelletier,M,USA,NH,Single-ply,T18-19 NH,81.76,,124.74,77.11,142.88,344.73,SBD
3,J. Hamel,M,USA,,Single-ply,T18-19 NH,81.42,,188.24,108.86,204.12,501.22,SBD
1,Rodney Inman,M,USA,VT,Single-ply,S35-39,93.89,100,181.44,120.2,242.67,544.31,SBD
1,Wayne Andrews,M,USA,NH,Single-ply,Master,,140+,272.16,156.49,308.44,737.09,SBD
2,Bill Dupont,M,USA,NH,Single-ply,Master,,90,215.46,138.35,204.12,557.92,SBD
